^C:\USERS\TALLES_HENRIQUE\DOCUMENTS\VISUAL STUDIO 2013\PROJECTS\CLASSIFICACAOIDADE\CLASSIFICACAOIDADE\X64\DEBUG\ANALISAPREDICAO.OBJ|C:\USERS\TALLES_HENRIQUE\DOCUMENTS\VISUAL STUDIO 2013\PROJECTS\CLASSIFICACAOIDADE\CLASSIFICACAOIDADE\X64\DEBUG\CLASSIFICACAOIDADE.OBJ|C:\USERS\TALLES_HENRIQUE\DOCUMENTS\VISUAL STUDIO 2013\PROJECTS\CLASSIFICACAOIDADE\CLASSIFICACAOIDADE\X64\DEBUG\LOADCSV.OBJ|C:\USERS\TALLES_HENRIQUE\DOCUMENTS\VISUAL STUDIO 2013\PROJECTS\CLASSIFICACAOIDADE\CLASSIFICACAOIDADE\X64\DEBUG\SHOWVIDEO.OBJ|C:\USERS\TALLES_HENRIQUE\DOCUMENTS\VISUAL STUDIO 2013\PROJECTS\CLASSIFICACAOIDADE\CLASSIFICACAOIDADE\X64\DEBUG\STDAFX.OBJ
C:\USERS\TALLES_HENRIQUE\DOCUMENTS\VISUAL STUDIO 2013\PROJECTS\CLASSIFICACAOIDADE\X64\DEBUG\CLASSIFICACAOIDADE.ILK
C:\USERS\TALLES_HENRIQUE\DOCUMENTS\VISUAL STUDIO 2013\PROJECTS\CLASSIFICACAOIDADE\X64\DEBUG\CLASSIFICACAOIDADE.EXE
C:\USERS\TALLES_HENRIQUE\DOCUMENTS\VISUAL STUDIO 2013\PROJECTS\CLASSIFICACAOIDADE\X64\DEBUG\CLASSIFICACAOIDADE.PDB
